STOPWATCH

	Questions c) - g) :

	button2 (Taster 2) to PA7 GPIOA

	RM 6.4.6
	We need the register RCC_AHBENR
	OFFSET : 0x14
	BIT 17 	
---------------------------------
	i) We need a PULLUP resistor
	ii) a high signal
	iii) a low signal
	iv) RM 8.4.4 GPIOA_PUPDR
		OFFSET 0x0C 
	v)	(1<<14)
 
	vi) & vii)  register GPIOA_IDR linked with & (1<<7)
	gives TRUE back when button pressed and FALSE not FALSE
	

	h) PM 4.4.3 Systick = 24 BITS
	i) with the difference between STK_RVR and STK_CVR
	   we are able to calculate the time --> 2.1 Seconds
		
	
---------------------------------
	further question answered in the code as comments



	
